{
    "title": "Column",
    "type": "object",
    "properties": {
        "id": {
            "type": "string"
        },
        "label": {
            "type": "string"
        },
        "type": {
            "type": "string"
        }
    },
    "required": ["label", "type"]
}
